{
  "rock": {
        "defeats": ["scissors", "fire", "sponge"],
        "defeated_by": ["paper", "water", "air"]
    },
    "paper": {
        "defeats": ["rock", "air", "water"],
        "defeated_by": ["scissors", "sponge", "fire"]
    },
    "scissors": {
        "defeats": ["paper", "air", "sponge"],
        "defeated_by": ["rock", "water", "fire"]
    },
  "sponge": {
        "defeats": ["paper", "air", "water"],
        "defeated_by": ["scissors", "rock", "fire"]
    },
  "air": {
        "defeats": ["fire", "rock", "water"],
        "defeated_by": ["paper", "scissors", "sponge"]
    },
  "fire": {
        "defeats": ["paper", "scissors", "sponge"],
        "defeated_by": ["air", "water", "rock"]
    },
  "water": {
        "defeats": ["rock", "scissors", "fire"],
        "defeated_by": ["sponge", "paper", "air"]
    }
}